{
  "images" : [
    {
      "idiom" : "universal",
      "filename" : "b3712149-c889-4334-b123-f388363427fb_0001_globe-(1).png",
      "scale" : "1x"
    },
    {
      "idiom" : "universal",
      "scale" : "2x"
    },
    {
      "idiom" : "universal",
      "scale" : "3x"
    }
  ],
  "info" : {
    "version" : 1,
    "author" : "xcode"
  }
}